Check "{ImageFolder}/1573856441243.png"
Click "{ImageFolder}/1573856449830.png" 12 185 172 44
Click "{ImageFolder}/1573856476223.png" 48 65
Click "{ImageFolder}/1573856502448.png" 35 79
Click "{ImageFolder}/1573856524625.png"
Type "Maths "
Click "{ImageFolder}/1573856586482.png" 37 52
Click "{ImageFolder}/1573856608977.png" 690 36 13 30
Click "{ImageFolder}/1573856647669.png" 37 47
Click "{ImageFolder}/1573856672964.png" 714 38 18 12
Click "{ImageFolder}/1573856732083.png"

