Check "{ImageFolder}/1575332948904.png"
Click "{ImageFolder}/1575332962246.png" 1 230 223 43
Click "{ImageFolder}/1575332998042.png" 26 32 199 31
Click "{ImageFolder}/1575333062726.png" 2 65 205 29
Click "{ImageFolder}/1575333104783.png" 209 3 197 33
Click "{ImageFolder}/1575333165765.png" 57 146 17 17
Click "{ImageFolder}/1575333924990.png" 202 16 194 31
Type "09"
Type "00"
Click "{ImageFolder}/1575333490964.png" 9 6 83 43
Check "{ImageFolder}/1575334160710.png"
