Check "{ImageFolder}/1578771388625.png"
Click "{ImageFolder}/1578771399596.png" 8 319 157 25
Click "{ImageFolder}/1578771429101.png" 40 52 68 34
Check "{ImageFolder}/1578771489817.png"

Check "{ImageFolder}/1578771464275.png"
